%YAML 1.1
%TAG !u! tag:unity3d.com,2011:
--- !u!114 &11400000
MonoBehaviour:
  m_ObjectHideFlags: 0
  m_CorrespondingSourceObject: {fileID: 0}
  m_PrefabInstance: {fileID: 0}
  m_PrefabAsset: {fileID: 0}
  m_GameObject: {fileID: 0}
  m_Enabled: 1
  m_EditorHideFlags: 0
  m_Script: {fileID: 11500000, guid: d9734fc43f8e0f143bc38de02c416b8a, type: 3}
  m_Name: AnimatorBeingHitAction
  m_EditorClassIdentifier: 
  parameterType: 3
  parameterName: BeingHit
  boolValue: 0
  intValue: 0
  floatValue: 0
  whenToRun: 0
