%YAML 1.1
%TAG !u! tag:unity3d.com,2011:
--- !u!114 &11400000
MonoBehaviour:
  m_ObjectHideFlags: 0
  m_CorrespondingSourceObject: {fileID: 0}
  m_PrefabInstance: {fileID: 0}
  m_PrefabAsset: {fileID: 0}
  m_GameObject: {fileID: 0}
  m_Enabled: 1
  m_EditorHideFlags: 0
  m_Script: {fileID: 11500000, guid: 3afc7bf71eb7b6044a460071fb167d38, type: 3}
  m_Name: EarthAbilities
  m_EditorClassIdentifier: 
  index: 0
  _abilityList:
  - {fileID: 11400000, guid: fcc342f308c7ff945a95dea2f68a29cd, type: 2}
  - {fileID: 11400000, guid: 19e415057330292449d98f27c62d8058, type: 2}
