%YAML 1.1
%TAG !u! tag:unity3d.com,2011:
--- !u!114 &11400000
MonoBehaviour:
  m_ObjectHideFlags: 0
  m_CorrespondingSourceObject: {fileID: 0}
  m_PrefabInstance: {fileID: 0}
  m_PrefabAsset: {fileID: 0}
  m_GameObject: {fileID: 0}
  m_Enabled: 1
  m_EditorHideFlags: 0
  m_Script: {fileID: 11500000, guid: 305e635114e1df84195c2618dc79a31c, type: 3}
  m_Name: DodgeFront
  m_EditorClassIdentifier: 
  _actions:
  - {fileID: 11400000, guid: 14af566e32d130445b01a9c36ffffead, type: 2}
