%YAML 1.1
%TAG !u! tag:unity3d.com,2011:
--- !u!114 &11400000
MonoBehaviour:
  m_ObjectHideFlags: 0
  m_CorrespondingSourceObject: {fileID: 0}
  m_PrefabInstance: {fileID: 0}
  m_PrefabAsset: {fileID: 0}
  m_GameObject: {fileID: 0}
  m_Enabled: 1
  m_EditorHideFlags: 0
  m_Script: {fileID: 11500000, guid: a964d27a580ffad4180ac9b392b03f34, type: 3}
  m_Name: ThachSanhMovementConfigsSO
  m_EditorClassIdentifier: 
  _attackRange: 2
  _lookRange: 15
  _acceleration: 8
  _decceleration: 10
  _slideDecceleration: 7
  _walkSpeed: 5
  _runSpeed: 7
  _sprintSpeed: 10
  _crouchSpeed: 3
  _slideDuration: 1
  _startPos: {x: 0, y: 0, z: 0}
